%YAML 1.1
%TAG !u! tag:unity3d.com,2011:
--- !u!687078895 &4343727234628468602
SpriteAtlas:
  m_ObjectHideFlags: 0
  m_CorrespondingSourceObject: {fileID: 0}
  m_PrefabInstance: {fileID: 0}
  m_PrefabAsset: {fileID: 0}
  m_Name: Tileset
  m_EditorData:
    serializedVersion: 2
    textureSettings:
      serializedVersion: 2
      anisoLevel: 1
      compressionQuality: 50
      maxTextureSize: 2048
      textureCompression: 0
      filterMode: 1
      generateMipMaps: 0
      readable: 0
      crunchedCompression: 0
      sRGB: 1
    platformSettings: []
    packingSettings:
      serializedVersion: 2
      padding: 4
      blockOffset: 1
      allowAlphaSplitting: 0
      enableRotation: 1
      enableTightPacking: 1
    variantMultiplier: 1
    packables:
    - {fileID: 21300000, guid: 5fd4d697b1b7005469515f4996009b06, type: 3}
    - {fileID: 21300000, guid: 1d5985280d4d1174eb7fbe4be5ca5c91, type: 3}
    - {fileID: 21300000, guid: a8393bcd33d9c3346920394f7b0032ff, type: 3}
    - {fileID: 21300000, guid: a31958dec605f964391fc02626253f76, type: 3}
    - {fileID: 21300000, guid: 00c096ef6b9509e4884aacee793dbddf, type: 3}
    - {fileID: 21300000, guid: cc03f9d420aa07841a99950b8a406d5a, type: 3}
    - {fileID: 21300000, guid: 615c7b0118a538c4f93dd5bd6ed17104, type: 3}
    - {fileID: 21300000, guid: 800b13792d4046d458721f665addc67a, type: 3}
    totalSpriteSurfaceArea: 131072
    bindAsDefault: 1
  m_MasterAtlas: {fileID: 0}
  m_PackedSprites:
  - {fileID: 21300000, guid: 615c7b0118a538c4f93dd5bd6ed17104, type: 3}
  - {fileID: 21300000, guid: cc03f9d420aa07841a99950b8a406d5a, type: 3}
  - {fileID: 21300000, guid: 5fd4d697b1b7005469515f4996009b06, type: 3}
  - {fileID: 21300000, guid: 1d5985280d4d1174eb7fbe4be5ca5c91, type: 3}
  - {fileID: 21300000, guid: 800b13792d4046d458721f665addc67a, type: 3}
  - {fileID: 21300000, guid: a8393bcd33d9c3346920394f7b0032ff, type: 3}
  - {fileID: 21300000, guid: a31958dec605f964391fc02626253f76, type: 3}
  - {fileID: 21300000, guid: 00c096ef6b9509e4884aacee793dbddf, type: 3}
  m_PackedSpriteNamesToIndex:
  - Depression_Tiles_Unmerged_0006_Top copy
  - Depression_Tiles_Unmerged_0005_Grass_Top
  - Depression_Tiles_Unmerged_0000_Grass_Center_Right
  - Depression_Tiles_Unmerged_0001_Grass_Center_Left
  - Depression_Tiles_Unmerged_0007_Center
  - Depression_Tiles_Unmerged_0002_Bottom_Right
  - Depression_Tiles_Unmerged_0003_Bottom_Left
  - Depression_Tiles_Unmerged_0004_Bottom
  m_Tag: Tileset
  m_IsVariant: 0
